{
  "kind": "collectionType",
  "connection": "default",
  "collectionName": "skus",
  "info": {
    "name": "sku"
  },
  "options": {
    "increments": true,
    "timestamps": true
  },
  "attributes": {
    "color": {
      "type": "component",
      "repeatable": false,
      "component": "product-attribute.color"
    },
    "dimensions": {
      "type": "component",
      "repeatable": false,
      "component": "product-attribute.dimensions"
    },
    "user": {
      "plugin": "users-permissions",
      "model": "user"
    },
    "capacity": {
      "type": "component",
      "repeatable": false,
      "component": "product-attribute.capacity"
    },
    "size": {
      "type": "component",
      "repeatable": false,
      "component": "product-attribute.size"
    },
    "product_image": {
      "via": "skus",
      "model": "product-image"
    },
    "name": {
      "type": "string"
    },
    "price": {
      "type": "decimal"
    },
    "discount": {
      "type": "string"
    },
    "discount_price": {
      "type": "decimal"
    },
    "stock": {
      "type": "integer"
    },
    "optimum_stock": {
      "type": "decimal"
    },
    "safety_stock": {
      "type": "integer"
    },
    "views": {
      "type": "integer"
    }
  }
}
