{
  "kind": "collectionType",
  "connection": "default",
  "collectionName": "users-permissions_user",
  "info": {
    "name": "user",
    "description": ""
  },
  "options": {
    "timestamps": true
  },
  "attributes": {
    "username": {
      "type": "string",
      "minLength": 3,
      "unique": true,
      "configurable": false,
      "required": true
    },
    "email": {
      "type": "email",
      "minLength": 6,
      "configurable": false,
      "required": true
    },
    "provider": {
      "type": "string",
      "configurable": false
    },
    "password": {
      "type": "password",
      "minLength": 6,
      "configurable": false,
      "private": true
    },
    "resetPasswordToken": {
      "type": "string",
      "configurable": false,
      "private": true
    },
    "confirmed": {
      "type": "boolean",
      "default": false,
      "configurable": false
    },
    "blocked": {
      "type": "boolean",
      "default": false,
      "configurable": false
    },
    "role": {
      "model": "role",
      "via": "users",
      "plugin": "users-permissions",
      "configurable": false
    },
    "user_app_roles": {
      "via": "user",
      "collection": "user-app-role"
    },
    "company_name": {
      "type": "string"
    },
    "tel": {
      "type": "string"
    },
    "account_balance": {
      "via": "user",
      "model": "account-balance"
    },
    "tenant_id": {
      "type": "string"
    }
  }
}
