{
  "kind": "collectionType",
  "collectionName": "product_images",
  "info": {
    "name": "product image"
  },
  "options": {
    "increments": true,
    "timestamps": true
  },
  "attributes": {
    "image": {
      "collection": "file",
      "via": "related",
      "plugin": "upload",
      "required": false
    },
    "skus": {
      "collection": "sku",
      "via": "product_image"
    },
    "tenant_id": {
      "type": "string"
    }
  }
}
