{
  "kind": "singleType",
  "connection": "default",
  "collectionName": "user_account_types",
  "info": {
    "name": "user account type"
  },
  "options": {
    "increments": true,
    "timestamps": true
  },
  "attributes": {
    "account_type": {
      "type": "enumeration",
      "enum": [
        "consumer",
        "supplier",
        "owner"
      ]
    }
  }
}
